^C:\USERS\IREG\DOCUMENTS\UPC\VJ\OPENGL2DGAME\RTYPE\RELEASE\BONUS.OBJ|C:\USERS\IREG\DOCUMENTS\UPC\VJ\OPENGL2DGAME\RTYPE\RELEASE\CBICHO.OBJ|C:\USERS\IREG\DOCUMENTS\UPC\VJ\OPENGL2DGAME\RTYPE\RELEASE\CDATA.OBJ|C:\USERS\IREG\DOCUMENTS\UPC\VJ\OPENGL2DGAME\RTYPE\RELEASE\CGAME.OBJ|C:\USERS\IREG\DOCUMENTS\UPC\VJ\OPENGL2DGAME\RTYPE\RELEASE\CPLAYER.OBJ|C:\USERS\IREG\DOCUMENTS\UPC\VJ\OPENGL2DGAME\RTYPE\RELEASE\CRECT.OBJ|C:\USERS\IREG\DOCUMENTS\UPC\VJ\OPENGL2DGAME\RTYPE\RELEASE\CSCENE.OBJ|C:\USERS\IREG\DOCUMENTS\UPC\VJ\OPENGL2DGAME\RTYPE\RELEASE\CTEXTURE.OBJ|C:\USERS\IREG\DOCUMENTS\UPC\VJ\OPENGL2DGAME\RTYPE\RELEASE\ENEMY.OBJ|C:\USERS\IREG\DOCUMENTS\UPC\VJ\OPENGL2DGAME\RTYPE\RELEASE\GLUTMAIN.OBJ|C:\USERS\IREG\DOCUMENTS\UPC\VJ\OPENGL2DGAME\RTYPE\RELEASE\SHOT.OBJ
C:\USERS\IREG\DOCUMENTS\UPC\VJ\OPENGL2DGAME\RTYPE\RELEASE\2DENGINE.EXE
C:\USERS\IREG\DOCUMENTS\UPC\VJ\OPENGL2DGAME\RTYPE\RELEASE\2DENGINE.PDB
